regression_qmd
…
tidytable[2,"p.value"]

# A tibble: 1 × 1
   p.value
     <dbl>
1 1.63e-69

augment(livenv_health_model)

# A tibble: 4,835 × 8
   health_london_rank livingEnv_london_rank .fitted  .resid     .hat .sigma
                <int>                 <int>   <dbl>   <dbl>    <dbl>  <dbl>
 1              32113                  7789  19588.  12525. 0.000250  7624.
 2              29705                 13070  21400.   8305. 0.000252  7625.
 3              17600                  4092  18320.   -720. 0.000458  7626.
 4              17907                  9397  20140.  -2233. 0.000213  7626.
 5              21581                 10629  20562.   1019. 0.000207  7626.
 6              16414                 11162  20745.  -4331. 0.000210  7626.
 7              12334                  8672  19891.  -7557. 0.000226  7625.
 8               9661                  9611  20213. -10552. 0.000211  7625.
 9              16050                  2269  17694.  -1644. 0.000624  7626.
10              18178                  4309  18394.   -216. 0.000441  7626.
# ℹ 4,825 more rows
# ℹ 2 more variables: .cooksd <dbl>, .std.resid <dbl>
…
